{
    "total": 1262,
    "per_page": 10,
    "page": 1,
    "last_page": 127,
    "data": [
        {
            "id": 17095,
            "to": "628561655028",
            "from": "6289614164706-1542814352",
            "from_group": true,
            "from_me": false,
            "message": "BANTEN.rar",
            "media_url": null,
            "type": "document",
            "status": "READ",
            "created_at": "2021-10-23 16:10:33",
            "updated_at": "2021-10-23 16:10:33",
            "reply_for": null,
            "failed_reason": null,
            "timestamp": 1634904673
        },
        {
            "id": 17094,
            "to": "628561655028",
            "from": "628117323024",
            "from_group": false,
            "from_me": false,
            "message": "",
            "media_url": "/media/1/3EB0630FF6F8D4DECD05.mp4",
            "type": "video",
            "status": "READ",
            "created_at": "2021-10-23 16:10:32",
            "updated_at": "2021-10-23 16:10:33",
            "reply_for": null,
            "failed_reason": null,
            "timestamp": 1633648855
        },
        {
            "id": 17093,
            "to": "628561655028",
            "from": "6289689601594-1514768642",
            "from_group": true,
            "from_me": false,
            "message": "",
            "media_url": "/media/1/6D6117D64A449686E8AAAA4A17EF66FF.jpeg",
            "type": "image",
            "status": "READ",
            "created_at": "2021-10-23 16:10:32",
            "updated_at": "2021-10-23 16:10:33",
            "reply_for": null,
            "failed_reason": null,
            "timestamp": 1634105528
        },
        {
            "id": 17092,
            "to": "628561655028",
            "from": "628117323024",
            "from_group": false,
            "from_me": false,
            "message": "",
            "media_url": "/media/1/3EB0920542C8D59561CF.mp4",
            "type": "video",
            "status": "READ",
            "created_at": "2021-10-23 16:10:32",
            "updated_at": "2021-10-23 16:10:33",
            "reply_for": null,
            "failed_reason": null,
            "timestamp": 1634208554
        },
        {
            "id": 17091,
            "to": "628561655028",
            "from": "6289689601594-1514768642",
            "from_group": true,
            "from_me": false,
            "message": "",
            "media_url": "/media/1/3FE4F6B173B4AF5AECD9D12A22999B92.jpeg",
            "type": "image",
            "status": "READ",
            "created_at": "2021-10-23 16:10:32",
            "updated_at": "2021-10-23 16:10:33",
            "reply_for": null,
            "failed_reason": null,
            "timestamp": 1634197183
        },
        {
            "id": 17090,
            "to": "628561655028",
            "from": "6289689601594-1514768642",
            "from_group": true,
            "from_me": false,
            "message": "",
            "media_url": "/media/1/60191A675C530B2ED8DE5C478286F3D0.jpeg",
            "type": "image",
            "status": "READ",
            "created_at": "2021-10-23 16:10:32",
            "updated_at": "2021-10-23 16:10:33",
            "reply_for": null,
            "failed_reason": null,
            "timestamp": 1634197182
        },
        {
            "id": 17089,
            "to": "628561655028",
            "from": "6289689601594-1514768642",
            "from_group": true,
            "from_me": false,
            "message": "",
            "media_url": "/media/1/64E3C8AE375A6F2E369AAE1FF4F3C659.jpeg",
            "type": "image",
            "status": "READ",
            "created_at": "2021-10-23 16:10:32",
            "updated_at": "2021-10-23 16:10:33",
            "reply_for": null,
            "failed_reason": null,
            "timestamp": 1634105527
        },
        {
            "id": 17088,
            "to": "628561655028",
            "from": "6289689601594-1514768642",
            "from_group": true,
            "from_me": false,
            "message": "",
            "media_url": "/media/1/6B6A89BB6E404BEF7D87A70552066B3D.jpeg",
            "type": "image",
            "status": "READ",
            "created_at": "2021-10-23 16:10:25",
            "updated_at": "2021-10-23 16:10:33",
            "reply_for": null,
            "failed_reason": null,
            "timestamp": 1634795076
        },
        {
            "id": 17087,
            "to": "628561655028",
            "from": "6289689601594-1514768642",
            "from_group": true,
            "from_me": false,
            "message": "Sini atuh angkringan gua juga ☕️☕️",
            "media_url": "/media/1/3A6F58F4CFAEEA5B6045.jpeg",
            "type": "image",
            "status": "READ",
            "created_at": "2021-10-23 16:10:25",
            "updated_at": "2021-10-23 16:10:33",
            "reply_for": null,
            "failed_reason": null,
            "timestamp": 1634737998
        },
        {
            "id": 17086,
            "to": "628561655028",
            "from": "6289689601594-1514768642",
            "from_group": true,
            "from_me": false,
            "message": "",
            "media_url": "/media/1/FD1425EB6B297E01F5CB05F3BD108F3D.jpeg",
            "type": "image",
            "status": "READ",
            "created_at": "2021-10-23 16:10:25",
            "updated_at": "2021-10-23 16:10:33",
            "reply_for": null,
            "failed_reason": null,
            "timestamp": 1634105528
        }
    ]
}